Options: hexadecimal, binary, octal, base10 (decimal), etc...
What are these numbers in? NOTE: password will be all lowercase

68 82 83 67 32 77 82 75 86 86 79 88 81 79 32 71 83 86 86 32 76 79 32 87 89 66 79 32 77 89 87 90 86 79 72 32 68 82 75 88 32 68 82 79 32 86 75 67 68 32 90 75 67 67 71 89 66 78 32 83 67 32 68 75 77 89 77 75 68
